


{
    "dirs": {
        "dest": ".",
        "src": "./application/webdev/webapp/app",
        "tasks": "./application/webdev/webapp/grunt-tasks-config",
        "base": "../lab-improving-work"
    },
    "apps": [
        "public",
        "private"
    ]
}
